…
Arguments:

  - **x** - data frame or tibble containing a code column  
  - **col** - name of column with code, as a character string (example:
    “fishery”)  
  - **type** - type of code to decipher (i.e., “fishery\_code”,
    “shell\_condition”, “legal”, “sex”)

Usage: Example using fishery code for dockside sampling data

``` r
f_sdr(x = dock, col = "fishery", type = "fishery_code")
```

    ## # A tibble: 11,218 x 11
    ##    fishery management_area target opening_year  adfg sampdate   spcode  size
    ##    <chr>   <chr>           <chr>         <dbl> <dbl> <date>      <dbl> <dbl>
    ##  1 QO19    bering_sea      snow_~         2019     7 2020-02-09    932    92
    ##  2 QO19    bering_sea      snow_~         2019     7 2020-02-09    932    96
    ##  3 QO19    bering_sea      snow_~         2019     7 2020-02-09    932    98
    ##  4 QO19    bering_sea      snow_~         2019     7 2020-02-09    932    99
    ##  5 QO19    bering_sea      snow_~         2019     7 2020-02-09    932   100
    ##  6 QO19    bering_sea      snow_~         2019     7 2020-02-09    932   101
    ##  7 QO19    bering_sea      snow_~         2019     7 2020-02-09    932   102
    ##  8 QO19    bering_sea      snow_~         2019     7 2020-02-09    932   103
    ##  9 QO19    bering_sea      snow_~         2019     7 2020-02-09    932   104
    ## 10 QO19    bering_sea      snow_~         2019     7 2020-02-09    932   105
    ## # ... with 11,208 more rows, and 3 more variables: legal <dbl>, shell <dbl>,
    ## #   numcrab <dbl>
…
Arguments:

  - **x** - data source, must include species code (e.g. 932, 931,
    etc)  
  - **type** - type of data source. ‘dockeside’ = dockside sampling data
    dump, ‘obs’ = observer data dumps.

Usage: Example using dockside sampling data

``` r
f_fish_code_adjust(x = dock, type = "dockside")
```

    ## # A tibble: 11,218 x 8
    ##    fishery  adfg sampdate   spcode  size legal shell numcrab
    ##    <chr>   <dbl> <date>      <dbl> <dbl> <dbl> <dbl>   <dbl>
    ##  1 QO19        7 2020-02-09    932    92     1     2       1
    ##  2 QO19        7 2020-02-09    932    96     1     2       1
    ##  3 QO19        7 2020-02-09    932    98     1     2       1
    ##  4 QO19        7 2020-02-09    932    99     1     2       2
    ##  5 QO19        7 2020-02-09    932   100     1     2       5
    ##  6 QO19        7 2020-02-09    932   101     1     2       6
    ##  7 QO19        7 2020-02-09    932   102     1     2       4
    ##  8 QO19        7 2020-02-09    932   103     1     2       3
    ##  9 QO19        7 2020-02-09    932   104     1     2      10
    ## 10 QO19        7 2020-02-09    932   105     1     2       7
    ## # ... with 11,208 more rows
…
Arguments:

  - **x** - any data frame containing the fields “size”, “spcode”, and
    “fishery” (fishery code; Tanner crab only). Columns must be
    present in code form.

Usage: Example using observer measure pot sampling data

``` r
f_legal_status(x = obs_meas) %>%
  dplyr::select(fishery, spcode, sex, legal_status, size)
```

    ## # A tibble: 337,603 x 5
    ##    fishery spcode   sex legal_status  size
    ##    <chr>    <dbl> <dbl> <lgl>        <dbl>
    ##  1 QO19       932     2 FALSE           73
    ##  2 QO19       932     2 FALSE           60
    ##  3 QO19       932     2 FALSE           58
    ##  4 QO19       932     1 TRUE            85
    ##  5 QO19       932     1 TRUE            98
    ##  6 QO19       932     1 TRUE            97
    ##  7 QO19       932     1 TRUE           105
    ##  8 QO19       932     1 TRUE           106
    ##  9 QO19       932     1 TRUE           100
    ## 10 QO19       932     1 TRUE            91
    ## # ... with 337,593 more rows
…
  - **x** - dockside sampling data for a species by fishery.  
  - **lump** - option T/F. If TRUE, shell conditions 0, 1, 2, and 9 are
    summed as “new” and shell conditions 3, 4, and 5 are summed as
    “old”. Default = FALSE.

Usage: Example using dockside sampling data

``` r
f_retained_size_comp(x = dock, lump = T) 
```

    ## `summarise()` regrouping output by 'fishery', 'size' (override with `.groups` argument)

    ## # A tibble: 68 x 7
    ##    fishery management_area target    opening_year  size   new   old
    ##    <chr>   <chr>           <chr>            <dbl> <dbl> <dbl> <dbl>
    ##  1 QO19    bering_sea      snow_crab         2019    72     0     1
    ##  2 QO19    bering_sea      snow_crab         2019    74     1     0
    ##  3 QO19    bering_sea      snow_crab         2019    75     0     1
    ##  4 QO19    bering_sea      snow_crab         2019    79     2     0
    ##  5 QO19    bering_sea      snow_crab         2019    80     1     1
    ##  6 QO19    bering_sea      snow_crab         2019    81     2     0
    ##  7 QO19    bering_sea      snow_crab         2019    82     1     1
    ##  8 QO19    bering_sea      snow_crab         2019    83     0     2
    ##  9 QO19    bering_sea      snow_crab         2019    84     3     1
    ## 10 QO19    bering_sea      snow_crab         2019    85     4     0
    ## # ... with 58 more rows
…
  - **x** - observer measure pot data for a species by fishery.  
  - **by** - numeric option denoting which delimiting characteristics to
    use. 1: sex, 2: sex & shell condition, 3: sex, shell condition &
    legal status
  - **lump** - option T/F. If TRUE, shell conditions 0, 1, 2, and 9 are
    summed as “new” and shell conditions 3, 4, and 5 are summed as
    “old”. No default, must be provided.

Usage: Example using observer measure pot data

``` r
f_observer_size_comp(x = obs_meas, by = 2, lump = T)
```

    ## # A tibble: 139 x 8
    ##    fishery management_area target    opening_year sex    size   new   old
    ##    <chr>   <chr>           <chr>            <dbl> <chr> <dbl> <dbl> <dbl>
    ##  1 QO19    bering_sea      snow_crab         2019 male     48     1     0
    ##  2 QO19    bering_sea      snow_crab         2019 male     51     1     0
    ##  3 QO19    bering_sea      snow_crab         2019 male     53     4     0
    ##  4 QO19    bering_sea      snow_crab         2019 male     54     3     0
    ##  5 QO19    bering_sea      snow_crab         2019 male     55     5     0
    ##  6 QO19    bering_sea      snow_crab         2019 male     56     4     3
    ##  7 QO19    bering_sea      snow_crab         2019 male     57     5     3
    ##  8 QO19    bering_sea      snow_crab         2019 male     58    10     7
    ##  9 QO19    bering_sea      snow_crab         2019 male     59    25     3
    ## 10 QO19    bering_sea      snow_crab         2019 male     60    25     9
    ## # ... with 129 more rows
…
Arguments:

  - **x** - sample date in the format MM-/DD-/YYYY.
  - **y** - Julian date for start of season in a non-leap year. Default
    is October 15, y = 288.

Usage: Example using observer measure pot data

``` r
obs_meas %>%
  dplyr::select(fishery, sampdate) %>%
  mutate(season_day = f_sday(sampdate))
```

    ## # A tibble: 337,603 x 3
    ##    fishery sampdate   season_day
    ##    <chr>   <chr>           <dbl>
    ##  1 QO19    01-04-2020         82
    ##  2 QO19    01-04-2020         82
    ##  3 QO19    01-04-2020         82
    ##  4 QO19    01-04-2020         82
    ##  5 QO19    01-04-2020         82
    ##  6 QO19    01-04-2020         82
    ##  7 QO19    01-04-2020         82
    ##  8 QO19    01-04-2020         82
    ##  9 QO19    01-04-2020         82
    ## 10 QO19    01-04-2020         82
    ## # ... with 337,593 more rows
…
Arguments:

  - **x** - sample date in the format MM-/DD-/YYYY.

Usage: Example using observer measure pot data

``` r
obs_meas %>%
  dplyr::select(fishery, sampdate) %>%
  mutate(stat_week = f_stat_week(sampdate))
```

    ## # A tibble: 337,603 x 3
    ##    fishery sampdate   stat_week
    ##    <chr>   <chr>          <dbl>
    ##  1 QO19    01-04-2020         1
    ##  2 QO19    01-04-2020         1
    ##  3 QO19    01-04-2020         1
    ##  4 QO19    01-04-2020         1
    ##  5 QO19    01-04-2020         1
    ##  6 QO19    01-04-2020         1
    ##  7 QO19    01-04-2020         1
    ##  8 QO19    01-04-2020         1
    ##  9 QO19    01-04-2020         1
    ## 10 QO19    01-04-2020         1
    ## # ... with 337,593 more rows
…
  - **path** - file path to Excel worksheet.  
  - **format** - fish tickets summaries prior to the 2014-15 season were
    provided in a different format than later seasons. As such they must
    be read differently. Possible values are “new” for summaries
    produced from the 2014-15 season to present and “old” for summaries
    produced prior.

Usage: Example using 2019-20 fish ticket report by stat area

``` r
f_read_fish_tick_xlsx(path = "./misc/data/fish_ticket_summaries/2019-20_crab.xlsx", format = "new")
```

    ## # A tibble: 201 x 12
    ##    fishery stat_area vessels landings live_number live_lbs deadloss_number
    ##    <chr>   <chr>       <dbl>    <dbl>       <dbl>    <dbl>           <dbl>
    ##  1 TR19    615601          1        2           0       0               NA
    ##  2 TR19    615630          2        4         485    3428.              NA
    ##  3 TR19    625600          6        8         448    3109.               1
    ##  4 TR19    625630          6        9        2848   20780.               4
    ##  5 TR19    635530          2        2           2      14               NA
    ##  6 TR19    635600         40       81      128666  896970.             232
    ##  7 TR19    635630         39       68       59707  421338.             155
    ##  8 TR19    635700          1        1           0       0               NA
    ##  9 TR19    645530          2        3          11      76               NA
    ## 10 TR19    645600         50      100      173221 1254044.             525
    ## # ... with 191 more rows, and 5 more variables: deadloss_lbs <dbl>,
    ## #   effort <dbl>, cpue <dbl>, avg_wt <dbl>, price_lbs <dbl>
